// Jest Snapshot v1, https://goo.gl/fbAQLP

exports[`SharePage component should render and match the snapshot 1`] = `
<React.Fragment>
  <WithStyles(ForwardRef(Container))
    maxWidth="lg"
  >
    <Header />
    <div
      style={
        Object {
          "alignItems": "center",
          "flexDirection": "column",
          "padding": "20px 90px 20px 90px",
        }
      }
    >
      <ListVideo />
    </div>
  </WithStyles(ForwardRef(Container))>
</React.Fragment>
`;
